TestName,msecs
EDGECONDITION,610.120782
EDGECONDITION,558.830149
EDGECONDITION,553.83318
EDGECONDITION,554.523162
EDGECONDITION,562.021341
EDGECONDITION,544.489027
EDGECONDITION,602.70823
EDGECONDITION,563.655687
EDGECONDITION,552.38734
EDGECONDITION,595.615612
EDGECONDITION,544.43387
EDGECONDITION,592.72784
EDGECONDITION,600.914436
EDGECONDITION,572.183986
EDGECONDITION,602.707476
EDGECONDITION,548.238716
EDGECONDITION,571.626637
EDGECONDITION,562.549364
EDGECONDITION,597.739461
EDGECONDITION,603.35922
