TestName,msecs
REQUIREDEDGE,433.75949
REQUIREDEDGE,370.826287
REQUIREDEDGE,337.143335
REQUIREDEDGE,327.985775
REQUIREDEDGE,378.495624
REQUIREDEDGE,418.083092
REQUIREDEDGE,404.372888
REQUIREDEDGE,422.057127
REQUIREDEDGE,321.680789
REQUIREDEDGE,402.441984
REQUIREDEDGE,406.927925
REQUIREDEDGE,368.168713
REQUIREDEDGE,366.479124
REQUIREDEDGE,429.155976
REQUIREDEDGE,347.541583
REQUIREDEDGE,382.251559
REQUIREDEDGE,387.753914
REQUIREDEDGE,426.394261
REQUIREDEDGE,414.04111
REQUIREDEDGE,412.681096
