TestName,msecs
CARDINALITY,1051.492013
CARDINALITY,913.586379
CARDINALITY,926.228412
CARDINALITY,886.205487
CARDINALITY,803.035361
CARDINALITY,850.028563
CARDINALITY,878.044883
CARDINALITY,925.318365
CARDINALITY,890.338864
CARDINALITY,848.593328
CARDINALITY,981.617367
CARDINALITY,872.381196
CARDINALITY,1025.672184
CARDINALITY,947.963354
CARDINALITY,915.615588
CARDINALITY,967.477508
CARDINALITY,879.903413
CARDINALITY,1009.020372
CARDINALITY,956.765875
CARDINALITY,959.103366
